
(module TO127P254X732-3 (layer F.Cu) (tedit 60B6B705)
  (descr "")
  (fp_text reference REF** (at -0.813445 -3.101315 0) (layer F.SilkS)
    (effects (font (size 1.64133070866 1.64133070866) (thickness 0.015)))
  )
  (fp_text value TO127P254X732-3 (at 8.621155 5.009915 0) (layer F.Fab)
    (effects (font (size 1.64200787402 1.64200787402) (thickness 0.015)))
  )
  (fp_arc (start -1.27643360896 1.27736734162) (end 1.143 1.27) (angle -193.0) (layer F.SilkS) (width 0.0))
  (fp_arc (start -1.3100342106 1.25694832535) (end 0.9906 2.1082) (angle -20.0) (layer F.SilkS) (width 0.0))
  (fp_line (start -3.2004 2.7178) (end 0.6604 2.7178) (layer F.Fab) (width 0.1524))
  (fp_arc (start -1.27 1.28937914077) (end 0.6604 2.7178) (angle -253.0) (layer F.Fab) (width 0.0))
  (pad 1 thru_hole rect (at -2.54 2.54) (size 1.4986 1.4986) (drill 0.9906) (layers *.Cu *.Mask))
  (pad 2 thru_hole circle (at -1.27 0.0) (size 1.4986 1.4986) (drill 0.9906) (layers *.Cu *.Mask))
  (pad 3 thru_hole circle (at 0.0 2.54) (size 1.4986 1.4986) (drill 0.9906) (layers *.Cu *.Mask))
)