Version 4
SHEET 1 1696 680
WIRE 160 -160 96 -160
WIRE 448 -128 448 -160
WIRE 160 -32 160 -160
WIRE 448 -32 448 -48
WIRE 576 -32 448 -32
WIRE 1056 16 976 16
WIRE 448 64 448 -32
WIRE 512 64 448 64
WIRE 656 80 656 -32
WIRE 656 80 576 80
WIRE 672 80 656 80
WIRE 784 80 752 80
WIRE 880 80 784 80
WIRE 1008 80 880 80
WIRE 160 96 160 48
WIRE 240 96 160 96
WIRE 368 96 320 96
WIRE 512 96 368 96
WIRE 880 112 880 80
WIRE 1056 112 1056 16
WIRE 1008 128 1008 80
WIRE 160 144 160 96
WIRE 368 144 368 96
WIRE 784 160 784 80
WIRE 544 176 544 112
WIRE 880 224 880 192
WIRE 1008 240 1008 176
WIRE 1056 272 1056 192
WIRE 1120 272 1056 272
WIRE 160 288 160 224
WIRE 368 288 368 224
FLAG 160 288 0
FLAG 720 -112 0
FLAG 720 -192 3.3V
IOPIN 720 -192 Out
FLAG 96 -160 5V
IOPIN 96 -160 In
FLAG 944 -144 Pi
IOPIN 944 -144 In
FLAG 1024 -144 0
FLAG 1120 272 Pi
IOPIN 1120 272 Out
FLAG 832 -112 0
FLAG 832 -192 5V
IOPIN 832 -192 Out
FLAG 448 -160 3.3V
IOPIN 448 -160 In
FLAG 544 176 0
FLAG 544 48 5V
IOPIN 544 48 In
FLAG 368 288 0
FLAG 880 224 0
FLAG 1008 240 0
FLAG 976 16 5V
IOPIN 976 16 In
FLAG 784 160 Op_Amp_Vout
SYMBOL res 144 -48 R0
SYMATTR InstName R1_POTENTIOMETER
SYMATTR Value 1.5k
SYMBOL res 144 128 R0
SYMATTR InstName R2-LDR
SYMATTR Value 40k
SYMBOL res 432 -144 R0
SYMATTR InstName R5
SYMATTR Value 2k
SYMBOL res 672 -48 R90
WINDOW 0 0 56 VBottom 2
WINDOW 3 32 56 VTop 2
SYMATTR InstName R6
SYMATTR Value 7.5k
SYMBOL voltage 720 -208 R0
WINDOW 123 0 0 Left 0
WINDOW 39 0 0 Left 0
SYMATTR InstName V1
SYMATTR Value 3.3
SYMBOL res 1040 -160 R90
WINDOW 0 0 56 VBottom 2
WINDOW 3 32 56 VTop 2
SYMATTR InstName R9
SYMATTR Value 1k
SYMBOL voltage 832 -208 R0
WINDOW 123 0 0 Left 0
WINDOW 39 0 0 Left 0
SYMATTR InstName V2
SYMATTR Value 5
SYMBOL OpAmps\\LT1368 544 16 R0
SYMATTR InstName U2
SYMBOL res 336 80 R90
WINDOW 0 0 56 VBottom 2
WINDOW 3 32 56 VTop 2
SYMATTR InstName R3
SYMATTR Value 2k
SYMBOL res 384 240 R180
WINDOW 0 36 76 Left 2
WINDOW 3 36 40 Left 2
SYMATTR InstName R4
SYMATTR Value 7.5k
SYMBOL res 768 64 R90
WINDOW 0 0 56 VBottom 2
WINDOW 3 32 56 VTop 2
SYMATTR InstName R7
SYMATTR Value 100
SYMBOL res 864 96 R0
SYMATTR InstName R8
SYMATTR Value 100k
SYMBOL sw 1056 208 M180
SYMATTR InstName S1
SYMATTR Value MYSW
TEXT 232 384 Left 2 !.tran 10
TEXT 408 384 Left 2 !.MODEL MYSW SW(RON=0.000001ROFF=10GIG VT=3)
